xt_conn_trd/xt_conn_trd.sim/sim_1/behav/simulate.log
Vivado Simulator 2014.3
Time resolution is 1 ps
==================================================
 	 	 START OF SIMULATION 	 	
==================================================
 ********** Running test {basic_test} **********
==================================================
RAM Instance using ADDR_WIDTH=          4, DATA_WIDTH=          9, FAST_READ=          0 : board.dut.packet_dma_axi_inst.dma_back_end_axi.target_cpl.rx_cfifo.fifo_ram
RAM Instance using ADDR_WIDTH=          4, DATA_WIDTH=         70, FAST_READ=          0 : board.dut.packet_dma_axi_inst.dma_back_end_axi.target_cpl.cpl_h_fifo.fifo_ram
RAM Instance using ADDR_WIDTH=          4, DATA_WIDTH=        258, FAST_READ=          0 : board.dut.packet_dma_axi_inst.dma_back_end_axi.target_cpl.cpl_tx_fifo.fifo_ram
RAM Instance using ADDR_WIDTH=          5, DATA_WIDTH=         56, FAST_READ=          0 : board.dut.packet_dma_axi_inst.dma_back_end_axi.target_cpl.axi_h_fifo.fifo_ram
RAM Instance using ADDR_WIDTH=          4, DATA_WIDTH=         55, FAST_READ=          0 : board.dut.packet_dma_axi_inst.dma_back_end_axi.target_cpl.axi_ra_fifo.fifo_ram
RAM Instance using ADDR_WIDTH=          4, DATA_WIDTH=         10, FAST_READ=          0 : board.dut.packet_dma_axi_inst.dma_back_end_axi.target_cpl.axi_ralo_fifo.fifo_ram
RAM Instance using ADDR_WIDTH=          5, DATA_WIDTH=          4, FAST_READ=          0 : board.dut.packet_dma_axi_inst.dma_back_end_axi.target_cpl.axi_wlen_fifo.fifo_ram
RAM Instance using ADDR_WIDTH=          4, DATA_WIDTH=          1, FAST_READ=          0 : board.dut.packet_dma_axi_inst.dma_back_end_axi.target_cpl.axi_rc_fifo.fifo_ram
RAM Instance using ADDR_WIDTH=          4, DATA_WIDTH=          9, FAST_READ=          0 : board.dut.packet_dma_axi_inst.dma_back_end_axi.target_rx.rx_cfifo.fifo_ram
RAM Instance using ADDR_WIDTH=          4, DATA_WIDTH=         70, FAST_READ=          0 : board.dut.packet_dma_axi_inst.dma_back_end_axi.target_rx.cpl_h_fifo.fifo_ram
RAM Instance using ADDR_WIDTH=          4, DATA_WIDTH=        258, FAST_READ=          0 : board.dut.packet_dma_axi_inst.dma_back_end_axi.target_rx.cpl_tx_fifo.fifo_ram
RAM Instance using ADDR_WIDTH=          5, DATA_WIDTH=         56, FAST_READ=          0 : board.dut.packet_dma_axi_inst.dma_back_end_axi.target_rx.axi_h_fifo.fifo_ram
RAM Instance using ADDR_WIDTH=          4, DATA_WIDTH=         55, FAST_READ=          0 : board.dut.packet_dma_axi_inst.dma_back_end_axi.target_rx.axi_ra_fifo.fifo_ram
RAM Instance using ADDR_WIDTH=          4, DATA_WIDTH=         10, FAST_READ=          0 : board.dut.packet_dma_axi_inst.dma_back_end_axi.target_rx.axi_ralo_fifo.fifo_ram
RAM Instance using ADDR_WIDTH=          5, DATA_WIDTH=          4, FAST_READ=          0 : board.dut.packet_dma_axi_inst.dma_back_end_axi.target_rx.axi_wlen_fifo.fifo_ram
RAM Instance using ADDR_WIDTH=          4, DATA_WIDTH=          1, FAST_READ=          0 : board.dut.packet_dma_axi_inst.dma_back_end_axi.target_rx.axi_rc_fifo.fifo_ram
RAM Instance using ADDR_WIDTH=          4, DATA_WIDTH=          8, FAST_READ=          0 : board.dut.packet_dma_axi_inst.dma_back_end_axi.msix_int_arb.gen_msix_table[0].msix_table_a0
RAM Instance using ADDR_WIDTH=          4, DATA_WIDTH=          8, FAST_READ=          0 : board.dut.packet_dma_axi_inst.dma_back_end_axi.msix_int_arb.gen_msix_table[0].msix_table_a1
RAM Instance using ADDR_WIDTH=          4, DATA_WIDTH=          8, FAST_READ=          0 : board.dut.packet_dma_axi_inst.dma_back_end_axi.msix_int_arb.gen_msix_table[0].msix_table_b0
RAM Instance using ADDR_WIDTH=          4, DATA_WIDTH=          8, FAST_READ=          0 : board.dut.packet_dma_axi_inst.dma_back_end_axi.msix_int_arb.gen_msix_table[0].msix_table_b1
RAM Instance using ADDR_WIDTH=          4, DATA_WIDTH=          8, FAST_READ=          0 : board.dut.packet_dma_axi_inst.dma_back_end_axi.msix_int_arb.gen_msix_table[1].msix_table_a0
RAM Instance using ADDR_WIDTH=          4, DATA_WIDTH=          8, FAST_READ=          0 : board.dut.packet_dma_axi_inst.dma_back_end_axi.msix_int_arb.gen_msix_table[1].msix_table_a1
RAM Instance using ADDR_WIDTH=          4, DATA_WIDTH=          8, FAST_READ=          0 : board.dut.packet_dma_axi_inst.dma_back_end_axi.msix_int_arb.gen_msix_table[1].msix_table_b0
RAM Instance using ADDR_WIDTH=          4, DATA_WIDTH=          8, FAST_READ=          0 : board.dut.packet_dma_axi_inst.dma_back_end_axi.msix_int_arb.gen_msix_table[1].msix_table_b1
RAM Instance using ADDR_WIDTH=          4, DATA_WIDTH=          8, FAST_READ=          0 : board.dut.packet_dma_axi_inst.dma_back_end_axi.msix_int_arb.gen_msix_table[2].msix_table_a0
RAM Instance using ADDR_WIDTH=          4, DATA_WIDTH=          8, FAST_READ=          0 : board.dut.packet_dma_axi_inst.dma_back_end_axi.msix_int_arb.gen_msix_table[2].msix_table_a1
RAM Instance using ADDR_WIDTH=          4, DATA_WIDTH=          8, FAST_READ=          0 : board.dut.packet_dma_axi_inst.dma_back_end_axi.msix_int_arb.gen_msix_table[2].msix_table_b0
RAM Instance using ADDR_WIDTH=          4, DATA_WIDTH=          8, FAST_READ=          0 : board.dut.packet_dma_axi_inst.dma_back_end_axi.msix_int_arb.gen_msix_table[2].msix_table_b1
RAM Instance using ADDR_WIDTH=          4, DATA_WIDTH=          8, FAST_READ=          0 : board.dut.packet_dma_axi_inst.dma_back_end_axi.msix_int_arb.gen_msix_table[3].msix_table_a0
RAM Instance using ADDR_WIDTH=          4, DATA_WIDTH=          8, FAST_READ=          0 : board.dut.packet_dma_axi_inst.dma_back_end_axi.msix_int_arb.gen_msix_table[3].msix_table_a1
RAM Instance using ADDR_WIDTH=          4, DATA_WIDTH=          8, FAST_READ=          0 : board.dut.packet_dma_axi_inst.dma_back_end_axi.msix_int_arb.gen_msix_table[3].msix_table_b0
RAM Instance using ADDR_WIDTH=          4, DATA_WIDTH=          8, FAST_READ=          0 : board.dut.packet_dma_axi_inst.dma_back_end_axi.msix_int_arb.gen_msix_table[3].msix_table_b1
RAM Instance using ADDR_WIDTH=          4, DATA_WIDTH=          8, FAST_READ=          0 : board.dut.packet_dma_axi_inst.dma_back_end_axi.msix_int_arb.gen_msix_table[4].msix_table_a0
RAM Instance using ADDR_WIDTH=          4, DATA_WIDTH=          8, FAST_READ=          0 : board.dut.packet_dma_axi_inst.dma_back_end_axi.msix_int_arb.gen_msix_table[4].msix_table_a1
RAM Instance using ADDR_WIDTH=          4, DATA_WIDTH=          8, FAST_READ=          0 : board.dut.packet_dma_axi_inst.dma_back_end_axi.msix_int_arb.gen_msix_table[4].msix_table_b0
RAM Instance using ADDR_WIDTH=          4, DATA_WIDTH=          8, FAST_READ=          0 : board.dut.packet_dma_axi_inst.dma_back_end_axi.msix_int_arb.gen_msix_table[4].msix_table_b1
RAM Instance using ADDR_WIDTH=          4, DATA_WIDTH=          8, FAST_READ=          0 : board.dut.packet_dma_axi_inst.dma_back_end_axi.msix_int_arb.gen_msix_table[5].msix_table_a0
RAM Instance using ADDR_WIDTH=          4, DATA_WIDTH=          8, FAST_READ=          0 : board.dut.packet_dma_axi_inst.dma_back_end_axi.msix_int_arb.gen_msix_table[5].msix_table_a1
RAM Instance using ADDR_WIDTH=          4, DATA_WIDTH=          8, FAST_READ=          0 : board.dut.packet_dma_axi_inst.dma_back_end_axi.msix_int_arb.gen_msix_table[5].msix_table_b0
RAM Instance using ADDR_WIDTH=          4, DATA_WIDTH=          8, FAST_READ=          0 : board.dut.packet_dma_axi_inst.dma_back_end_axi.msix_int_arb.gen_msix_table[5].msix_table_b1
RAM Instance using ADDR_WIDTH=          4, DATA_WIDTH=          8, FAST_READ=          0 : board.dut.packet_dma_axi_inst.dma_back_end_axi.msix_int_arb.gen_msix_table[6].msix_table_a0
RAM Instance using ADDR_WIDTH=          4, DATA_WIDTH=          8, FAST_READ=          0 : board.dut.packet_dma_axi_inst.dma_back_end_axi.msix_int_arb.gen_msix_table[6].msix_table_a1
RAM Instance using ADDR_WIDTH=          4, DATA_WIDTH=          8, FAST_READ=          0 : board.dut.packet_dma_axi_inst.dma_back_end_axi.msix_int_arb.gen_msix_table[6].msix_table_b0
RAM Instance using ADDR_WIDTH=          4, DATA_WIDTH=          8, FAST_READ=          0 : board.dut.packet_dma_axi_inst.dma_back_end_axi.msix_int_arb.gen_msix_table[6].msix_table_b1
RAM Instance using ADDR_WIDTH=          4, DATA_WIDTH=          8, FAST_READ=          0 : board.dut.packet_dma_axi_inst.dma_back_end_axi.msix_int_arb.gen_msix_table[7].msix_table_a0
RAM Instance using ADDR_WIDTH=          4, DATA_WIDTH=          8, FAST_READ=          0 : board.dut.packet_dma_axi_inst.dma_back_end_axi.msix_int_arb.gen_msix_table[7].msix_table_a1
RAM Instance using ADDR_WIDTH=          4, DATA_WIDTH=          8, FAST_READ=          0 : board.dut.packet_dma_axi_inst.dma_back_end_axi.msix_int_arb.gen_msix_table[7].msix_table_b0
RAM Instance using ADDR_WIDTH=          4, DATA_WIDTH=          8, FAST_READ=          0 : board.dut.packet_dma_axi_inst.dma_back_end_axi.msix_int_arb.gen_msix_table[7].msix_table_b1
RAM Instance using ADDR_WIDTH=          4, DATA_WIDTH=          8, FAST_READ=          0 : board.dut.packet_dma_axi_inst.dma_back_end_axi.msix_int_arb.gen_msix_table[8].msix_table_a0
RAM Instance using ADDR_WIDTH=          4, DATA_WIDTH=          8, FAST_READ=          0 : board.dut.packet_dma_axi_inst.dma_back_end_axi.msix_int_arb.gen_msix_table[8].msix_table_a1
RAM Instance using ADDR_WIDTH=          4, DATA_WIDTH=          8, FAST_READ=          0 : board.dut.packet_dma_axi_inst.dma_back_end_axi.msix_int_arb.gen_msix_table[8].msix_table_b0
RAM Instance using ADDR_WIDTH=          4, DATA_WIDTH=          8, FAST_READ=          0 : board.dut.packet_dma_axi_inst.dma_back_end_axi.msix_int_arb.gen_msix_table[8].msix_table_b1
RAM Instance using ADDR_WIDTH=          4, DATA_WIDTH=          8, FAST_READ=          0 : board.dut.packet_dma_axi_inst.dma_back_end_axi.msix_int_arb.gen_msix_table[9].msix_table_a0
RAM Instance using ADDR_WIDTH=          4, DATA_WIDTH=          8, FAST_READ=          0 : board.dut.packet_dma_axi_inst.dma_back_end_axi.msix_int_arb.gen_msix_table[9].msix_table_a1
RAM Instance using ADDR_WIDTH=          4, DATA_WIDTH=          8, FAST_READ=          0 : board.dut.packet_dma_axi_inst.dma_back_end_axi.msix_int_arb.gen_msix_table[9].msix_table_b0
RAM Instance using ADDR_WIDTH=          4, DATA_WIDTH=          8, FAST_READ=          0 : board.dut.packet_dma_axi_inst.dma_back_end_axi.msix_int_arb.gen_msix_table[9].msix_table_b1
RAM Instance using ADDR_WIDTH=          4, DATA_WIDTH=          8, FAST_READ=          0 : board.dut.packet_dma_axi_inst.dma_back_end_axi.msix_int_arb.gen_msix_table[10].msix_table_a0
RAM Instance using ADDR_WIDTH=          4, DATA_WIDTH=          8, FAST_READ=          0 : board.dut.packet_dma_axi_inst.dma_back_end_axi.msix_int_arb.gen_msix_table[10].msix_table_a1
RAM Instance using ADDR_WIDTH=          4, DATA_WIDTH=          8, FAST_READ=          0 : board.dut.packet_dma_axi_inst.dma_back_end_axi.msix_int_arb.gen_msix_table[10].msix_table_b0
RAM Instance using ADDR_WIDTH=          4, DATA_WIDTH=          8, FAST_READ=          0 : board.dut.packet_dma_axi_inst.dma_back_end_axi.msix_int_arb.gen_msix_table[10].msix_table_b1
RAM Instance using ADDR_WIDTH=          4, DATA_WIDTH=          8, FAST_READ=          0 : board.dut.packet_dma_axi_inst.dma_back_end_axi.msix_int_arb.gen_msix_table[11].msix_table_a0
RAM Instance using ADDR_WIDTH=          4, DATA_WIDTH=          8, FAST_READ=          0 : board.dut.packet_dma_axi_inst.dma_back_end_axi.msix_int_arb.gen_msix_table[11].msix_table_a1
RAM Instance using ADDR_WIDTH=          4, DATA_WIDTH=          8, FAST_READ=          0 : board.dut.packet_dma_axi_inst.dma_back_end_axi.msix_int_arb.gen_msix_table[11].msix_table_b0
RAM Instance using ADDR_WIDTH=          4, DATA_WIDTH=          8, FAST_READ=          0 : board.dut.packet_dma_axi_inst.dma_back_end_axi.msix_int_arb.gen_msix_table[11].msix_table_b1
RAM Instance using ADDR_WIDTH=          4, DATA_WIDTH=        131, FAST_READ=          0 : board.dut.packet_dma_axi_inst.dma_back_end_axi.gen_c2s_dma[0].gen_c2s_dma_axi.c2s_dma_axi.dma_registers_packet.status_fifo.fifo_ram
RAM Instance using ADDR_WIDTH=          4, DATA_WIDTH=        401, FAST_READ=          0 : board.dut.packet_dma_axi_inst.dma_back_end_axi.gen_c2s_dma[0].gen_c2s_dma_axi.c2s_dma_axi.c2s_dma_engine_pkt.c2s_tx_pkt.c2s_fifo.fifo_ram
RAM Instance using ADDR_WIDTH=          2, DATA_WIDTH=         59, FAST_READ=          0 : board.dut.packet_dma_axi_inst.dma_back_end_axi.gen_c2s_dma[0].gen_c2s_dma_axi.c2s_dma_axi.c2s_axi_if.cmd_fifo.fifo_ram
RAM Instance using ADDR_WIDTH=          4, DATA_WIDTH=         12, FAST_READ=          0 : board.dut.packet_dma_axi_inst.dma_back_end_axi.gen_c2s_dma[0].gen_c2s_dma_axi.c2s_dma_axi.c2s_axi_if.data_offset_fifo.fifo_ram
RAM Instance using ADDR_WIDTH=          5, DATA_WIDTH=         11, FAST_READ=          0 : board.dut.packet_dma_axi_inst.dma_back_end_axi.gen_c2s_dma[0].gen_c2s_dma_axi.c2s_dma_axi.c2s_axi_if.data_fifo_ctrl.fifo_ram
RAM Instance using ADDR_WIDTH=          4, DATA_WIDTH=        131, FAST_READ=          0 : board.dut.packet_dma_axi_inst.dma_back_end_axi.gen_c2s_dma[1].gen_c2s_dma_axi.c2s_dma_axi.dma_registers_packet.status_fifo.fifo_ram
RAM Instance using ADDR_WIDTH=          4, DATA_WIDTH=        401, FAST_READ=          0 : board.dut.packet_dma_axi_inst.dma_back_end_axi.gen_c2s_dma[1].gen_c2s_dma_axi.c2s_dma_axi.c2s_dma_engine_pkt.c2s_tx_pkt.c2s_fifo.fifo_ram
RAM Instance using ADDR_WIDTH=          2, DATA_WIDTH=         59, FAST_READ=          0 : board.dut.packet_dma_axi_inst.dma_back_end_axi.gen_c2s_dma[1].gen_c2s_dma_axi.c2s_dma_axi.c2s_axi_if.cmd_fifo.fifo_ram
RAM Instance using ADDR_WIDTH=          4, DATA_WIDTH=         12, FAST_READ=          0 : board.dut.packet_dma_axi_inst.dma_back_end_axi.gen_c2s_dma[1].gen_c2s_dma_axi.c2s_dma_axi.c2s_axi_if.data_offset_fifo.fifo_ram
RAM Instance using ADDR_WIDTH=          5, DATA_WIDTH=         11, FAST_READ=          0 : board.dut.packet_dma_axi_inst.dma_back_end_axi.gen_c2s_dma[1].gen_c2s_dma_axi.c2s_dma_axi.c2s_axi_if.data_fifo_ctrl.fifo_ram
RAM Instance using ADDR_WIDTH=          4, DATA_WIDTH=        131, FAST_READ=          0 : board.dut.packet_dma_axi_inst.dma_back_end_axi.gen_c2s_dma[2].gen_c2s_dma_axi.c2s_dma_axi.dma_registers_packet.status_fifo.fifo_ram
RAM Instance using ADDR_WIDTH=          4, DATA_WIDTH=        401, FAST_READ=          0 : board.dut.packet_dma_axi_inst.dma_back_end_axi.gen_c2s_dma[2].gen_c2s_dma_axi.c2s_dma_axi.c2s_dma_engine_pkt.c2s_tx_pkt.c2s_fifo.fifo_ram
RAM Instance using ADDR_WIDTH=          2, DATA_WIDTH=         59, FAST_READ=          0 : board.dut.packet_dma_axi_inst.dma_back_end_axi.gen_c2s_dma[2].gen_c2s_dma_axi.c2s_dma_axi.c2s_axi_if.cmd_fifo.fifo_ram
RAM Instance using ADDR_WIDTH=          4, DATA_WIDTH=         12, FAST_READ=          0 : board.dut.packet_dma_axi_inst.dma_back_end_axi.gen_c2s_dma[2].gen_c2s_dma_axi.c2s_dma_axi.c2s_axi_if.data_offset_fifo.fifo_ram
RAM Instance using ADDR_WIDTH=          5, DATA_WIDTH=         11, FAST_READ=          0 : board.dut.packet_dma_axi_inst.dma_back_end_axi.gen_c2s_dma[2].gen_c2s_dma_axi.c2s_dma_axi.c2s_axi_if.data_fifo_ctrl.fifo_ram
RAM Instance using ADDR_WIDTH=          4, DATA_WIDTH=        131, FAST_READ=          0 : board.dut.packet_dma_axi_inst.dma_back_end_axi.gen_c2s_dma[3].gen_c2s_dma_axi.c2s_dma_axi.dma_registers_packet.status_fifo.fifo_ram
RAM Instance using ADDR_WIDTH=          4, DATA_WIDTH=        401, FAST_READ=          0 : board.dut.packet_dma_axi_inst.dma_back_end_axi.gen_c2s_dma[3].gen_c2s_dma_axi.c2s_dma_axi.c2s_dma_engine_pkt.c2s_tx_pkt.c2s_fifo.fifo_ram
RAM Instance using ADDR_WIDTH=          2, DATA_WIDTH=         59, FAST_READ=          0 : board.dut.packet_dma_axi_inst.dma_back_end_axi.gen_c2s_dma[3].gen_c2s_dma_axi.c2s_dma_axi.c2s_axi_if.cmd_fifo.fifo_ram
RAM Instance using ADDR_WIDTH=          4, DATA_WIDTH=         12, FAST_READ=          0 : board.dut.packet_dma_axi_inst.dma_back_end_axi.gen_c2s_dma[3].gen_c2s_dma_axi.c2s_dma_axi.c2s_axi_if.data_offset_fifo.fifo_ram
RAM Instance using ADDR_WIDTH=          5, DATA_WIDTH=         11, FAST_READ=          0 : board.dut.packet_dma_axi_inst.dma_back_end_axi.gen_c2s_dma[3].gen_c2s_dma_axi.c2s_dma_axi.c2s_axi_if.data_fifo_ctrl.fifo_ram
RAM Instance using ADDR_WIDTH=          4, DATA_WIDTH=        131, FAST_READ=          0 : board.dut.packet_dma_axi_inst.dma_back_end_axi.gen_s2c_dma[0].gen_s2c_dma_axi.s2c_dma_axi.dma_registers_packet.status_fifo.fifo_ram
RAM Instance using ADDR_WIDTH=          4, DATA_WIDTH=        143, FAST_READ=          0 : board.dut.packet_dma_axi_inst.dma_back_end_axi.gen_s2c_dma[0].gen_s2c_dma_axi.s2c_dma_axi.s2c_dma_engine_pkt.s2c_tx_pkt.cpl_reorder_queue_pkt.info_ram
RAM Instance using ADDR_WIDTH=          4, DATA_WIDTH=          1, FAST_READ=          0 : board.dut.packet_dma_axi_inst.dma_back_end_axi.gen_s2c_dma[0].gen_s2c_dma_axi.s2c_dma_axi.s2c_dma_engine_pkt.s2c_tx_pkt.cpl_reorder_queue_pkt.caddr_no_inc_ram
RAM Instance using ADDR_WIDTH=          4, DATA_WIDTH=         64, FAST_READ=          0 : board.dut.packet_dma_axi_inst.dma_back_end_axi.gen_s2c_dma[0].gen_s2c_dma_axi.s2c_dma_axi.s2c_dma_engine_pkt.s2c_tx_pkt.cpl_reorder_queue_pkt.caddr_ram
RAM Instance using ADDR_WIDTH=          4, DATA_WIDTH=        111, FAST_READ=          0 : board.dut.packet_dma_axi_inst.dma_back_end_axi.gen_s2c_dma[0].gen_s2c_dma_axi.s2c_dma_axi.s2c_axi_if.cmd_fifo.fifo_ram
RAM Instance using ADDR_WIDTH=          4, DATA_WIDTH=        131, FAST_READ=          0 : board.dut.packet_dma_axi_inst.dma_back_end_axi.gen_s2c_dma[1].gen_s2c_dma_axi.s2c_dma_axi.dma_registers_packet.status_fifo.fifo_ram
RAM Instance using ADDR_WIDTH=          4, DATA_WIDTH=        143, FAST_READ=          0 : board.dut.packet_dma_axi_inst.dma_back_end_axi.gen_s2c_dma[1].gen_s2c_dma_axi.s2c_dma_axi.s2c_dma_engine_pkt.s2c_tx_pkt.cpl_reorder_queue_pkt.info_ram
RAM Instance using ADDR_WIDTH=          4, DATA_WIDTH=          1, FAST_READ=          0 : board.dut.packet_dma_axi_inst.dma_back_end_axi.gen_s2c_dma[1].gen_s2c_dma_axi.s2c_dma_axi.s2c_dma_engine_pkt.s2c_tx_pkt.cpl_reorder_queue_pkt.caddr_no_inc_ram
RAM Instance using ADDR_WIDTH=          4, DATA_WIDTH=         64, FAST_READ=          0 : board.dut.packet_dma_axi_inst.dma_back_end_axi.gen_s2c_dma[1].gen_s2c_dma_axi.s2c_dma_axi.s2c_dma_engine_pkt.s2c_tx_pkt.cpl_reorder_queue_pkt.caddr_ram
RAM Instance using ADDR_WIDTH=          4, DATA_WIDTH=        111, FAST_READ=          0 : board.dut.packet_dma_axi_inst.dma_back_end_axi.gen_s2c_dma[1].gen_s2c_dma_axi.s2c_dma_axi.s2c_axi_if.cmd_fifo.fifo_ram
RAM Instance using ADDR_WIDTH=          4, DATA_WIDTH=        131, FAST_READ=          0 : board.dut.packet_dma_axi_inst.dma_back_end_axi.gen_s2c_dma[2].gen_s2c_dma_axi.s2c_dma_axi.dma_registers_packet.status_fifo.fifo_ram
RAM Instance using ADDR_WIDTH=          4, DATA_WIDTH=        143, FAST_READ=          0 : board.dut.packet_dma_axi_inst.dma_back_end_axi.gen_s2c_dma[2].gen_s2c_dma_axi.s2c_dma_axi.s2c_dma_engine_pkt.s2c_tx_pkt.cpl_reorder_queue_pkt.info_ram
RAM Instance using ADDR_WIDTH=          4, DATA_WIDTH=          1, FAST_READ=          0 : board.dut.packet_dma_axi_inst.dma_back_end_axi.gen_s2c_dma[2].gen_s2c_dma_axi.s2c_dma_axi.s2c_dma_engine_pkt.s2c_tx_pkt.cpl_reorder_queue_pkt.caddr_no_inc_ram
RAM Instance using ADDR_WIDTH=          4, DATA_WIDTH=         64, FAST_READ=          0 : board.dut.packet_dma_axi_inst.dma_back_end_axi.gen_s2c_dma[2].gen_s2c_dma_axi.s2c_dma_axi.s2c_dma_engine_pkt.s2c_tx_pkt.cpl_reorder_queue_pkt.caddr_ram
RAM Instance using ADDR_WIDTH=          4, DATA_WIDTH=        111, FAST_READ=          0 : board.dut.packet_dma_axi_inst.dma_back_end_axi.gen_s2c_dma[2].gen_s2c_dma_axi.s2c_dma_axi.s2c_axi_if.cmd_fifo.fifo_ram
RAM Instance using ADDR_WIDTH=          4, DATA_WIDTH=        131, FAST_READ=          0 : board.dut.packet_dma_axi_inst.dma_back_end_axi.gen_s2c_dma[3].gen_s2c_dma_axi.s2c_dma_axi.dma_registers_packet.status_fifo.fifo_ram
RAM Instance using ADDR_WIDTH=          4, DATA_WIDTH=        143, FAST_READ=          0 : board.dut.packet_dma_axi_inst.dma_back_end_axi.gen_s2c_dma[3].gen_s2c_dma_axi.s2c_dma_axi.s2c_dma_engine_pkt.s2c_tx_pkt.cpl_reorder_queue_pkt.info_ram
RAM Instance using ADDR_WIDTH=          4, DATA_WIDTH=          1, FAST_READ=          0 : board.dut.packet_dma_axi_inst.dma_back_end_axi.gen_s2c_dma[3].gen_s2c_dma_axi.s2c_dma_axi.s2c_dma_engine_pkt.s2c_tx_pkt.cpl_reorder_queue_pkt.caddr_no_inc_ram
RAM Instance using ADDR_WIDTH=          4, DATA_WIDTH=         64, FAST_READ=          0 : board.dut.packet_dma_axi_inst.dma_back_end_axi.gen_s2c_dma[3].gen_s2c_dma_axi.s2c_dma_axi.s2c_dma_engine_pkt.s2c_tx_pkt.cpl_reorder_queue_pkt.caddr_ram
RAM Instance using ADDR_WIDTH=          4, DATA_WIDTH=        111, FAST_READ=          0 : board.dut.packet_dma_axi_inst.dma_back_end_axi.gen_s2c_dma[3].gen_s2c_dma_axi.s2c_dma_axi.s2c_axi_if.cmd_fifo.fifo_ram
WARNING: Behavioral models for independent clock FIFO configurations do not model synchronization delays. The behavioral models are functionally correct, and will represent the behavior of the configured FIFO. See the FIFO Generator User Guide for more information.
WARNING: Behavioral models for independent clock FIFO configurations do not model synchronization delays. The behavioral models are functionally correct, and will represent the behavior of the configured FIFO. See the FIFO Generator User Guide for more information.
WARNING: Behavioral models for independent clock FIFO configurations do not model synchronization delays. The behavioral models are functionally correct, and will represent the behavior of the configured FIFO. See the FIFO Generator User Guide for more information.
WARNING: Behavioral models for independent clock FIFO configurations do not model synchronization delays. The behavioral models are functionally correct, and will represent the behavior of the configured FIFO. See the FIFO Generator User Guide for more information.
WARNING: Behavioral models for independent clock FIFO configurations do not model synchronization delays. The behavioral models are functionally correct, and will represent the behavior of the configured FIFO. See the FIFO Generator User Guide for more information.
WARNING: Behavioral models for independent clock FIFO configurations do not model synchronization delays. The behavioral models are functionally correct, and will represent the behavior of the configured FIFO. See the FIFO Generator User Guide for more information.
WARNING: Behavioral models for independent clock FIFO configurations do not model synchronization delays. The behavioral models are functionally correct, and will represent the behavior of the configured FIFO. See the FIFO Generator User Guide for more information.
WARNING: Behavioral models for independent clock FIFO configurations do not model synchronization delays. The behavioral models are functionally correct, and will represent the behavior of the configured FIFO. See the FIFO Generator User Guide for more information.
Block Memory Generator module board.dut.comp_inst.s2c0_compression_inst.inst.dout_bram.inst.native_mem_module.blk_mem_gen_v8_2_inst is using a behavioral model for simulation which will not precisely model memory collision behavior.
Block Memory Generator module board.dut.comp_inst.s2c0_compression_inst.inst.sg_bram_inst.inst.native_mem_module.blk_mem_gen_v8_2_inst is using a behavioral model for simulation which will not precisely model memory collision behavior.
WARNING: Behavioral models for independent clock FIFO configurations do not model synchronization delays. The behavioral models are functionally correct, and will represent the behavior of the configured FIFO. See the FIFO Generator User Guide for more information.
WARNING: Behavioral models for independent clock FIFO configurations do not model synchronization delays. The behavioral models are functionally correct, and will represent the behavior of the configured FIFO. See the FIFO Generator User Guide for more information.
WARNING: Behavioral models for independent clock FIFO configurations do not model synchronization delays. The behavioral models are functionally correct, and will represent the behavior of the configured FIFO. See the FIFO Generator User Guide for more information.
WARNING: Behavioral models for independent clock FIFO configurations do not model synchronization delays. The behavioral models are functionally correct, and will represent the behavior of the configured FIFO. See the FIFO Generator User Guide for more information.
[                   0] : System Reset Asserted...
[              495000] : System Reset De-asserted...
[            15558001] : Transaction Reset Is De-asserted...
[            25122000] : Transaction Link Is Up...
[            25127000] Programming the command regsiter of RP
[            25130000] : Writing Cfg Addr [0x00000001]
[            25170000] Set Slot Power Limit Message with data 
INFO: CH0 Frame Payload Length =     234
INFO: CH0 Frame Payload Length =     234
INFO: CH1 Frame Payload Length =     234
INFO: CH1 Frame Payload Length =     234
INFO: CH2 Frame Payload Length =     234
INFO: CH2 Frame Payload Length =     234
INFO: CH3 Frame Payload Length =     234
INFO: CH3 Frame Payload Length =     234
[            25570000] : Setting Core Configuration Space...
[            28426000] : BAR programming complete...
[            29034000]PCIe CFG: program Command Register with value = 00000407
[            29282000] Reading DUT capability pointer
[            31290000] Reading DUT capabilities 
[            33498000] Power Management Capability Found at offset = 0x80 
[            33498000] Reading DUT capabilities 
[            35706000] MSI Capability Found 
[            35706000] MSI capability programming
[            36538000] Reading DUT capabilities 
[            38746000] PCI Express Capability Found at offset = 0xc0 
[            38746000] PCIe CFG: PCIe capability programming
[            41162000] Reading DMA capabilities at address = ff000000
[            43370000] Performance Scaling factor = 3

[            43370000] Found S2C Engine
[            43578000] Reading DMA capabilities at address = ff000100
[            45786000] Performance Scaling factor = 3

[            45786000] Found S2C Engine
[            45994000] Reading DMA capabilities at address = ff000200
[            48202000] Performance Scaling factor = 3

[            48202000] Found S2C Engine
[            48410000] Reading DMA capabilities at address = ff000300
[            50618000] Performance Scaling factor = 3

[            50618000] Found S2C Engine
[            51026000] Reading DMA capabilities at address = ff002000
[            53234000] Performance Scaling factor = 3

[            53234000] Found C2S Engine
[            53442000] Reading DMA capabilities at address = ff002100
[            55650000] Performance Scaling factor = 3

[            55650000] Found C2S Engine
[            55858000] Reading DMA capabilities at address = ff002200
[            58066000] Performance Scaling factor = 3

[            58066000] Found C2S Engine
[            58274000] Reading DMA capabilities at address = ff002300
[            60482000] Performance Scaling factor = 3

[            60482000] Found C2S Engine
[            60890000] DMA Config: Enabling Interrupts
********** Starting basic_test **********
Waiting for 10G PHY0 Initialization...

Waiting for 10G PHY1 Initialization...

Waiting for 10G PHY2 Initialization...

Waiting for 10G PHY3 Initialization...

Disabling PCIe-DMA performance mode...
[            61098000] TSK_PROG_REG: Programming register @ 0x00009004 with 0x00000000

Configuring XGEMAC0...

Writing FC Register

Reading MDIO...

Writing MDIO...

Configuring XGEMAC1...

Writing FC Register

Reading MDIO...

Writing MDIO...

Configuring XGEMAC2...

Writing FC Register

Reading MDIO...

Writing MDIO...

Configuring XGEMAC3...

Writing FC Register

Reading MDIO...

Writing MDIO...

[            71162000] DMA Config: Programming Reg_Next_Desc_Ptr for APP-         0 in S2C direction with value = 00000020
[            71170000] DMA Config: Programming Reg_Next_Desc_Ptr for APP-         0 in C2S direction with value = 00000800
[            71378000] DMA Config: Programming Sw_Desc_ptr for APP-         0 in S2C direction with value = 00000020
[            71386000] DMA Config: Programming Sw_Desc_ptr for APP-         0 in C2S direction with value = 00000800
[            71594000] DMA Config: Enabling S2C DMA engine for APP-         0 
[            71602000] DMA Config: Enabling C2S DMA engine for APP-         0 
[            71610000] DMA Config: Programming Sw_Desc_ptr for APP-         0 in S2C direction with value = 00000060
[            71618000] DMA Config: Programming Sw_Desc_ptr for APP-         0 in C2S direction with value = 00000940
[            71826000] DMA Config: Programming Reg_Next_Desc_Ptr for APP-         1 in S2C direction with value = 00000200
[            71834000] DMA Config: Programming Reg_Next_Desc_Ptr for APP-         1 in C2S direction with value = 00000a00
[            71994000] Received Memory read at address = 0000000000000020
[            72014000] Received Memory read at address = 0000000000000800
[            72042000] DMA Config: Programming Sw_Desc_ptr for APP-         1 in S2C direction with value = 00000200
